#!/bin/sh

# Slackware build script for enet

# Written by otzy_007 (oz@oprod.net)

NAME=enet
VERSION=${VERSION:-1.2.1}
BUILD=${BUILD:-1}
TAG=${TAG:-_SBo}

# Automatically determine the architecture we're building on:
if [ -z "$ARCH" ]; then
  case "$( uname -m )" in
    i?86) ARCH=i486 ;;
    arm*) ARCH=arm ;;
    # Unless $ARCH is already set, use uname -m for all other archs:
       *) ARCH=$( uname -m ) ;;
  esac
fi

CWD=$(pwd)
TMP=${TMP:-/tmp/SBo}	
PKG=$TMP/package-$NAME
OUTPUT=${OUTPUT:-/tmp}

if [ "$ARCH" = "i486" ]; then
  SLKCFLAGS="-O2 -march=i486 -mtune=i686"
  LIBDIRSUFFIX=""
elif [ "$ARCH" = "i686" ]; then
  SLKCFLAGS="-O2 -march=i686 -mtune=i686"
  LIBDIRSUFFIX=""
elif [ "$ARCH" = "x86_64" ]; then
  SLKCFLAGS="-O2 -fPIC"
  LIBDIRSUFFIX="64"
else
  SLKCFLAGS="-O2"
  LIBDIRSUFFIX=""
fi

set -e 

rm -rf $PKG
mkdir -p $TMP $PKG $OUTPUT
cd $TMP
rm -rf $NAME-$VERSION
tar xvf $CWD/$NAME-$VERSION.tar.gz
cd $NAME-$VERSION
chown -R root:root .
find . \
 \( -perm 777 -o -perm 775 -o -perm 711 -o -perm 555 -o -perm 511 \) \
 -exec chmod 755 {} \; -o \
 \( -perm 666 -o -perm 664 -o -perm 600 -o -perm 444 -o -perm 440 -o -perm 400 \) \
 -exec chmod 644 {} \;

CFLAGS="$SLKCFLAGS" \
CXXFLAGS="$SLKCFLAGS" \
./configure \
  --prefix=/usr \
  --libdir=/usr/lib${LIBDIRSUFFIX} \
  --sysconfdir=/etc \
  --localstatedir=/var \
  --mandir=/usr/man \
  --docdir=/usr/doc/$NAME-$VERSION \
  --build=$ARCH-slackware-linux

make
make install DESTDIR=$PKG

find $PKG | xargs file | grep -e "executable" -e "shared object" | grep ELF \
  | cut -f 1 -d : | xargs strip --strip-unneeded 2> /dev/null || true

mkdir -p $PKG/usr/doc/$NAME-$VERSION
cp -a \
  README LICENSE ChangeLog \
  $PKG/usr/doc/$NAME-$VERSION
cat $CWD/$NAME.SlackBuild > $PKG/usr/doc/$NAME-$VERSION/$NAME.SlackBuild

mkdir -p $PKG/install
cat $CWD/slack-desc > $PKG/install/slack-desc

cd $PKG
/sbin/makepkg -l y -c n $OUTPUT/$NAME-$VERSION-$ARCH-$BUILD$TAG.${PKGTYPE:-tgz}
